<?xml version="1.0" encoding="UTF-8"?>
<svg width="313px" height="358px" viewBox="0 0 313 358" version="1.1" xmlns="http://www.w3.org/2000/svg" xmlns:xlink="http://www.w3.org/1999/xlink">
    <!-- Generator: Sketch 51.3 (57544) - http://www.bohemiancoding.com/sketch -->
    <title>Polygon</title>
    <desc>Created with Sketch.</desc>
    <defs></defs>
    <g id="Page-1" stroke="none" stroke-width="1" fill="none" fill-rule="evenodd">
        <polygon id="Polygon" stroke="#737373" points="156.5 1 311.95156 90 311.95156 268 156.5 357 1.04844002 268 1.04844002 90"></polygon>
    </g>
</svg>